{
  "BurstVersion": "2f1db436-49d2-4cf2-9ff6-ac6e11381fb4",
  "Assemblies": [
    {
      "FullName": "Unity.Jobs, Version=0.0.0.0, Culture=neutral, PublicKeyToken=null",
      "LastWriteTime": "2020-10-21T06:50:26.2056604Z"
    },
    {
      "FullName": "Unity.Entities, Version=0.0.0.0, Culture=neutral, PublicKeyToken=null",
      "LastWriteTime": "2020-10-21T06:50:38.0110953Z"
    },
    {
      "FullName": "netstandard, Version=2.0.0.0, Culture=neutral, PublicKeyToken=cc7b13ffcd2ddd51",
      "LastWriteTime": "2020-06-17T20:51:56Z"
    },
    {
      "FullName": "mscorlib, Version=4.0.0.0, Culture=neutral, PublicKeyToken=b77a5c561934e089",
      "LastWriteTime": "2020-06-17T20:51:56Z"
    },
    {
      "FullName": "UnityEngine.CoreModule, Version=0.0.0.0, Culture=neutral, PublicKeyToken=null",
      "LastWriteTime": "2020-06-17T21:02:30Z"
    },
    {
      "FullName": "Unity.Collections, Version=0.0.0.0, Culture=neutral, PublicKeyToken=null",
      "LastWriteTime": "2020-10-21T06:50:26.0416189Z"
    },
    {
      "FullName": "mscorlib, Version=2.0.0.0, Culture=neutral, PublicKeyToken=b77a5c561934e089",
      "LastWriteTime": "2020-06-17T20:51:56Z"
    },
    {
      "FullName": "Unity.Burst, Version=0.0.0.0, Culture=neutral, PublicKeyToken=null",
      "LastWriteTime": "2020-10-21T06:50:24.1270092Z"
    },
    {
      "FullName": "Unity.Mathematics, Version=0.0.0.0, Culture=neutral, PublicKeyToken=null",
      "LastWriteTime": "2020-10-21T06:50:25.6006781Z"
    },
    {
      "FullName": "Unity.Burst.Unsafe, Version=4.0.5.0, Culture=neutral, PublicKeyToken=null",
      "LastWriteTime": "2020-05-25T15:25:46Z"
    },
    {
      "FullName": "System.Runtime, Version=4.0.0.0, Culture=neutral, PublicKeyToken=b03f5f7f11d50a3a",
      "LastWriteTime": "2020-06-17T20:51:56Z"
    },
    {
      "FullName": "System.Runtime.CompilerServices.Unsafe, Version=4.0.4.0, Culture=neutral, PublicKeyToken=b03f5f7f11d50a3a",
      "LastWriteTime": "2020-06-16T15:11:10Z"
    },
    {
      "FullName": "Unity.Physics.Hybrid, Version=0.0.0.0, Culture=neutral, PublicKeyToken=null",
      "LastWriteTime": "2020-10-21T06:50:36.9268508Z"
    },
    {
      "FullName": "Unity.Physics, Version=0.0.0.0, Culture=neutral, PublicKeyToken=null",
      "LastWriteTime": "2020-10-21T06:50:37.0908874Z"
    },
    {
      "FullName": "Unity.Transforms, Version=0.0.0.0, Culture=neutral, PublicKeyToken=null",
      "LastWriteTime": "2020-10-21T06:50:35.7511626Z"
    },
    {
      "FullName": "Unity.Rendering.Hybrid, Version=0.0.0.0, Culture=neutral, PublicKeyToken=null",
      "LastWriteTime": "2020-10-21T06:50:37.1328968Z"
    },
    {
      "FullName": "Unity.Mathematics.Extensions, Version=0.0.0.0, Culture=neutral, PublicKeyToken=null",
      "LastWriteTime": "2020-10-21T06:50:34.0662093Z"
    },
    {
      "FullName": "Assembly-CSharp, Version=0.0.0.0, Culture=neutral, PublicKeyToken=null",
      "LastWriteTime": "2020-10-21T06:50:41.4798735Z"
    }
  ],
  "Functions": [
    {
      "FullName": "System.Void Unity.Jobs.IJobBurstScheduableExtensions/JobStruct2`1<Unity.Entities.GatherChunksAndOffsetsWithFilteringJob>::Execute(T&,System.IntPtr,System.IntPtr,Unity.Jobs.LowLevel.Unsafe.JobRanges&,System.Int32)",
      "ModuleOptionsHash": 8794384452606821980,
      "ModuleHash": "85687950d12de5feb4a2e8dfc2237b68",
      "LinkName": "11051CB9634C8C18",
      "AssemblyDependencyIndices": [
        0,
        1,
        2,
        3,
        4,
        5,
        6
      ]
    },
    {
      "FullName": "System.Int32 Unity.Burst.Intrinsics.X86::DoGetCSRTrampoline()",
      "ModuleOptionsHash": 8794384452606821980,
      "ModuleHash": "61d44d460b8fee1e59585c06b52a88cc",
      "LinkName": "CDCA4A5193BE5947",
      "AssemblyDependencyIndices": [
        7,
        2,
        3
      ]
    },
    {
      "FullName": "System.Void Unity.Burst.Intrinsics.X86::DoSetCSRTrampoline(System.Int32)",
      "ModuleOptionsHash": 8794384452606821980,
      "ModuleHash": "d362b687f52120f5df24d16140e852a1",
      "LinkName": "801E9A000BB37B05",
      "AssemblyDependencyIndices": [
        7,
        2,
        3
      ]
    },
    {
      "FullName": "System.Void Unity.Jobs.IJobBurstScheduableExtensions/JobStruct2`1<Unity.Entities.GatherChunksAndOffsetsJob>::Execute(T&,System.IntPtr,System.IntPtr,Unity.Jobs.LowLevel.Unsafe.JobRanges&,System.Int32)",
      "ModuleOptionsHash": 8794384452606821980,
      "ModuleHash": "3df24b548fe489d3ce971d8157df5077",
      "LinkName": "D882D8B12F01DA2B",
      "AssemblyDependencyIndices": [
        0,
        1,
        2,
        3,
        4,
        5
      ]
    },
    {
      "FullName": "System.Void Unity.Jobs.IJobParallelForExtensionsBurstScheduable/ParallelForJobStructBurstScheduable`1<Unity.Entities.GatherChunks>::Execute(T&,System.IntPtr,System.IntPtr,Unity.Jobs.LowLevel.Unsafe.JobRanges&,System.Int32)",
      "ModuleOptionsHash": 8794384452606821980,
      "ModuleHash": "9e0e1bf866dcf49fac06d2897db04f55",
      "LinkName": "06544D36FC0BC147",
      "AssemblyDependencyIndices": [
        0,
        1,
        2,
        3,
        4,
        6,
        5
      ]
    },
    {
      "FullName": "System.Void Unity.Jobs.IJobBurstScheduableExtensions/JobStruct2`1<Unity.Entities.EntityDataAccess/DestroyChunks>::Execute(T&,System.IntPtr,System.IntPtr,Unity.Jobs.LowLevel.Unsafe.JobRanges&,System.Int32)",
      "ModuleOptionsHash": 8794384452606821980,
      "ModuleHash": "610114926f7541deb7ece385322b574a",
      "LinkName": "51B442B71140A5B2",
      "AssemblyDependencyIndices": [
        0,
        1,
        2,
        3,
        4,
        6,
        5,
        8,
        7,
        9,
        10,
        11
      ]
    },
    {
      "FullName": "System.Void Unity.Jobs.IJobParallelForExtensionsBurstScheduable/ParallelForJobStructBurstScheduable`1<Unity.Entities.GatherChunksWithFiltering>::Execute(T&,System.IntPtr,System.IntPtr,Unity.Jobs.LowLevel.Unsafe.JobRanges&,System.Int32)",
      "ModuleOptionsHash": 8794384452606821980,
      "ModuleHash": "bd5d87350a0935946b9f1b9b6a4c8778",
      "LinkName": "513095DC10357B49",
      "AssemblyDependencyIndices": [
        0,
        1,
        2,
        3,
        4,
        6,
        5
      ]
    },
    {
      "FullName": "System.Void Unity.Entities.StructuralChange::_mono_to_burst_AddComponentEntitiesBatch(Unity.Entities.EntityComponentStore*,Unity.Collections.LowLevel.Unsafe.UnsafeList*,System.Int32)",
      "ModuleOptionsHash": 8794384452606821980,
      "ModuleHash": "638879d92e357979062dd90c267fc2e9",
      "LinkName": "62CE3BC75C2A206A",
      "AssemblyDependencyIndices": [
        1,
        2,
        3,
        5,
        4,
        6,
        8,
        7,
        9,
        10,
        11
      ]
    },
    {
      "FullName": "System.Boolean Unity.Entities.StructuralChange::_mono_to_burst_AddComponentEntity(Unity.Entities.EntityComponentStore*,Unity.Entities.Entity*,System.Int32)",
      "ModuleOptionsHash": 8794384452606821980,
      "ModuleHash": "e632a964e27e8d2b605cf81234ebcd9c",
      "LinkName": "7C006B897B43AB73",
      "AssemblyDependencyIndices": [
        1,
        2,
        3,
        5,
        4,
        6,
        8,
        7,
        9,
        10,
        11
      ]
    },
    {
      "FullName": "System.Void Unity.Entities.StructuralChange::_mono_to_burst_AddComponentChunks(Unity.Entities.EntityComponentStore*,Unity.Entities.ArchetypeChunk*,System.Int32,System.Int32)",
      "ModuleOptionsHash": 8794384452606821980,
      "ModuleHash": "53d728569c0f955fed3e6bb23f6a2deb",
      "LinkName": "2FD5595E7AB211CE",
      "AssemblyDependencyIndices": [
        1,
        2,
        3,
        5,
        4,
        6,
        8,
        7,
        11,
        9,
        10
      ]
    },
    {
      "FullName": "System.Boolean Unity.Entities.StructuralChange::_mono_to_burst_RemoveComponentEntity(Unity.Entities.EntityComponentStore*,Unity.Entities.Entity*,System.Int32)",
      "ModuleOptionsHash": 8794384452606821980,
      "ModuleHash": "7f169fbbcd8fbbfd51a8785a974576d7",
      "LinkName": "BC21EC44338D1C70",
      "AssemblyDependencyIndices": [
        1,
        2,
        3,
        5,
        4,
        6,
        8,
        7,
        9,
        10,
        11
      ]
    },
    {
      "FullName": "System.Void Unity.Entities.StructuralChange::_mono_to_burst_RemoveComponentEntitiesBatch(Unity.Entities.EntityComponentStore*,Unity.Collections.LowLevel.Unsafe.UnsafeList*,System.Int32)",
      "ModuleOptionsHash": 8794384452606821980,
      "ModuleHash": "e0a77b0101720350004fcb5943ae98b5",
      "LinkName": "CD8113A41A890E46",
      "AssemblyDependencyIndices": [
        1,
        2,
        3,
        5,
        4,
        6,
        8,
        7,
        9,
        10,
        11
      ]
    },
    {
      "FullName": "System.Void Unity.Entities.StructuralChange::_mono_to_burst_RemoveComponentChunks(Unity.Entities.EntityComponentStore*,Unity.Entities.ArchetypeChunk*,System.Int32,System.Int32)",
      "ModuleOptionsHash": 8794384452606821980,
      "ModuleHash": "aad08f2fa6eaa1665004e481a04f95e1",
      "LinkName": "F4B1F63D1587E925",
      "AssemblyDependencyIndices": [
        1,
        2,
        3,
        5,
        4,
        6,
        8,
        7,
        11,
        9,
        10
      ]
    },
    {
      "FullName": "System.Void Unity.Entities.StructuralChange::_mono_to_burst_AddSharedComponentChunks(Unity.Entities.EntityComponentStore*,Unity.Entities.ArchetypeChunk*,System.Int32,System.Int32,System.Int32)",
      "ModuleOptionsHash": 8794384452606821980,
      "ModuleHash": "f74963705bf5be93e42fd4f890501eeb",
      "LinkName": "6FB1C7AF851F9598",
      "AssemblyDependencyIndices": [
        1,
        2,
        3,
        5,
        4,
        6,
        8,
        7,
        11,
        9,
        10
      ]
    },
    {
      "FullName": "System.Void Unity.Entities.StructuralChange::_mono_to_burst_MoveEntityArchetype(Unity.Entities.EntityComponentStore*,Unity.Entities.Entity*,System.Void*)",
      "ModuleOptionsHash": 8794384452606821980,
      "ModuleHash": "8c6b9764c50e696d27f9c058310ee01e",
      "LinkName": "5FBF7809B801E642",
      "AssemblyDependencyIndices": [
        1,
        2,
        3,
        5,
        4,
        6,
        8,
        7,
        9,
        10,
        11
      ]
    },
    {
      "FullName": "System.Void Unity.Entities.StructuralChange::_mono_to_burst_SetChunkComponent(Unity.Entities.EntityComponentStore*,Unity.Entities.ArchetypeChunk*,System.Int32,System.Void*,System.Int32)",
      "ModuleOptionsHash": 8794384452606821980,
      "ModuleHash": "f01498e942ff7cf2f80a303a05e40fa2",
      "LinkName": "CD0BC2372F6F0CA3",
      "AssemblyDependencyIndices": [
        1,
        2,
        3,
        5,
        4,
        6
      ]
    },
    {
      "FullName": "System.Void Unity.Entities.StructuralChange::_mono_to_burst_CreateEntity(Unity.Entities.EntityComponentStore*,System.Void*,Unity.Entities.Entity*,System.Int32)",
      "ModuleOptionsHash": 8794384452606821980,
      "ModuleHash": "3e18319f1f588d9fc88153e1ab5034ee",
      "LinkName": "24CFDDDB6D7CECAC",
      "AssemblyDependencyIndices": [
        1,
        2,
        3,
        5,
        4,
        6,
        8,
        7,
        9,
        10,
        11
      ]
    },
    {
      "FullName": "System.Void Unity.Entities.StructuralChange::_mono_to_burst_InstantiateEntities(Unity.Entities.EntityComponentStore*,Unity.Entities.Entity*,Unity.Entities.Entity*,System.Int32)",
      "ModuleOptionsHash": 8794384452606821980,
      "ModuleHash": "89e9423cff279d8ec1caabb12e094c6c",
      "LinkName": "A560F1318C47B918",
      "AssemblyDependencyIndices": [
        1,
        2,
        3,
        5,
        4,
        6,
        8,
        7,
        9,
        10,
        11
      ]
    },
    {
      "FullName": "System.Boolean Unity.Entities.EntityCommandBuffer::PlaybackUnmanagedCommandExecute(Unity.Entities.EntityComponentStore*,Unity.Entities.BasicCommand*,Unity.Entities.ECBSharedPlaybackState&,Unity.Entities.PlaybackPolicy)",
      "ModuleOptionsHash": 8794384452606821980,
      "ModuleHash": "fde0fef60d4b9ae07819db54d9edd30e",
      "LinkName": "EB836A6B00385FD7",
      "AssemblyDependencyIndices": [
        1,
        2,
        3,
        5,
        4,
        6,
        8,
        7,
        9,
        10,
        11
      ]
    },
    {
      "FullName": "System.Void Unity.Entities.EntityCommandBuffer::PlaybackChainChunkWrapper(Unity.Entities.EntityDataAccess*,Unity.Collections.LowLevel.Unsafe.UnsafeList*,Unity.Entities.EntityComponentStore/ArchetypeChanges&,Unity.Entities.ECBSharedPlaybackState&,Unity.Entities.ECBChainPlaybackState*,System.Int32,System.Int32,System.Boolean,Unity.Entities.PlaybackPolicy)",
      "ModuleOptionsHash": 8794384452606821980,
      "ModuleHash": "614254d9d6ccd9ce208cf9a233da0581",
      "LinkName": "6CCB0EABEDB92507",
      "AssemblyDependencyIndices": [
        1,
        2,
        3,
        5,
        4,
        6,
        8,
        7,
        9,
        10,
        11
      ]
    },
    {
      "FullName": "System.Int32 Unity.Entities.ChunkIterationUtility::CalculateEntityCountExecute(Unity.Entities.UnsafeMatchingArchetypePtrList&,Unity.Entities.EntityQueryFilter&)",
      "ModuleOptionsHash": 8794384452606821980,
      "ModuleHash": "e1841c805f29c32e07a72bf023999c4d",
      "LinkName": "A97758B627ED3037",
      "AssemblyDependencyIndices": [
        1,
        2,
        3,
        5
      ]
    },
    {
      "FullName": "System.Void Unity.Jobs.IJobExtensions/JobStruct`1<Unity.Physics.Authoring.PhysicsShapeExtensions/BakeSphereJob>::Execute(T&,System.IntPtr,System.IntPtr,Unity.Jobs.LowLevel.Unsafe.JobRanges&,System.Int32)",
      "ModuleOptionsHash": 8794384452606821980,
      "ModuleHash": "c39db0f19b749af8c9986cd3d0413100",
      "LinkName": "7E3A82087FDDA743",
      "AssemblyDependencyIndices": [
        4,
        12,
        6,
        2,
        3,
        13,
        8
      ]
    },
    {
      "FullName": "System.Int32 Unity.Entities.ChunkIterationUtility::CalculateChunkCountExecute(Unity.Entities.UnsafeMatchingArchetypePtrList&,Unity.Entities.EntityQueryFilter&)",
      "ModuleOptionsHash": 8794384452606821980,
      "ModuleHash": "08df7d3db5f39b943c4f7077e4fb620b",
      "LinkName": "9FD4D34EBF439837",
      "AssemblyDependencyIndices": [
        1,
        2,
        3,
        5
      ]
    },
    {
      "FullName": "System.Void Unity.Entities.JobChunkExtensions/JobChunkProducer`1<Unity.Entities.GatherEntitiesJob>::Execute(Unity.Entities.JobChunkExtensions/JobChunkWrapper`1<T>&,System.IntPtr,System.IntPtr,Unity.Jobs.LowLevel.Unsafe.JobRanges&,System.Int32)",
      "ModuleOptionsHash": 8794384452606821980,
      "ModuleHash": "a363a05f4167c0ca48641f37c9dca258",
      "LinkName": "90AC1F4498492A4F",
      "AssemblyDependencyIndices": [
        1,
        2,
        3,
        4,
        6,
        5,
        8
      ]
    },
    {
      "FullName": "System.Void Unity.Jobs.IJobParallelForExtensions/ParallelForJobStruct`1<Unity.Physics.Authoring.BaseShapeConversionSystem`1/CreateBlobAssetsJob<Unity.Physics.Authoring.PhysicsShapeAuthoring>>::Execute(T&,System.IntPtr,System.IntPtr,Unity.Jobs.LowLevel.Unsafe.JobRanges&,System.Int32)",
      "ModuleOptionsHash": 8794384452606821980,
      "ModuleHash": "465d4d3aff1089e0fd6d6a5b44c8efa2",
      "LinkName": "9DA8C93EE943A8B9",
      "AssemblyDependencyIndices": [
        4,
        12,
        6,
        2,
        3,
        1,
        8,
        13,
        5,
        11,
        10
      ]
    },
    {
      "FullName": "System.Void Unity.Jobs.IJobParallelForExtensions/ParallelForJobStruct`1<Unity.Physics.Authoring.BaseShapeConversionSystem`1/ProduceConvexCollidersJob<Unity.Physics.Authoring.PhysicsShapeAuthoring>>::Execute(T&,System.IntPtr,System.IntPtr,Unity.Jobs.LowLevel.Unsafe.JobRanges&,System.Int32)",
      "ModuleOptionsHash": 8794384452606821980,
      "ModuleHash": "d2ab00cd22aa557af525cf5b708d6df0",
      "LinkName": "5BDF6C752026E2A5",
      "AssemblyDependencyIndices": [
        4,
        12,
        6,
        1,
        8,
        2,
        3,
        13,
        5,
        11,
        10,
        7,
        9
      ]
    },
    {
      "FullName": "System.Void Unity.Jobs.IJobParallelForExtensions/ParallelForJobStruct`1<Unity.Physics.Authoring.BaseShapeConversionSystem`1/ProduceMeshCollidersJob<Unity.Physics.Authoring.PhysicsShapeAuthoring>>::Execute(T&,System.IntPtr,System.IntPtr,Unity.Jobs.LowLevel.Unsafe.JobRanges&,System.Int32)",
      "ModuleOptionsHash": 8794384452606821980,
      "ModuleHash": "8c12834000a48ffe146b8a472b3f8ea4",
      "LinkName": "2F4EF4AF14EB9942",
      "AssemblyDependencyIndices": [
        4,
        12,
        6,
        1,
        8,
        2,
        3,
        13,
        5,
        11,
        10,
        7,
        9
      ]
    },
    {
      "FullName": "System.Void Unity.Jobs.IJobExtensions/JobStruct`1<Unity.Physics.Systems.BuildPhysicsWorld/Jobs/CreateDefaultStaticRigidBody>::Execute(T&,System.IntPtr,System.IntPtr,Unity.Jobs.LowLevel.Unsafe.JobRanges&,System.Int32)",
      "ModuleOptionsHash": 8794384452606821980,
      "ModuleHash": "0b0051291930f1ad544b68abf0bd20af",
      "LinkName": "40E1B3DC56DE0D7D",
      "AssemblyDependencyIndices": [
        4,
        13,
        6,
        2,
        3,
        1,
        8
      ]
    },
    {
      "FullName": "System.Void Unity.Entities.JobChunkExtensions/JobChunkProducer`1<Unity.Physics.Systems.BuildPhysicsWorld/Jobs/CreateRigidBodies>::Execute(Unity.Entities.JobChunkExtensions/JobChunkWrapper`1<T>&,System.IntPtr,System.IntPtr,Unity.Jobs.LowLevel.Unsafe.JobRanges&,System.Int32)",
      "ModuleOptionsHash": 8794384452606821980,
      "ModuleHash": "4dcf3785a05da6cb49b21500bd0f8ae7",
      "LinkName": "3A97AA8FDDB15908",
      "AssemblyDependencyIndices": [
        1,
        13,
        2,
        3,
        4,
        6,
        14,
        8,
        5
      ]
    },
    {
      "FullName": "System.Void Unity.Jobs.IJobExtensions/JobStruct`1<Unity.Physics.Broadphase/PrepareNumStaticBodiesJob>::Execute(T&,System.IntPtr,System.IntPtr,Unity.Jobs.LowLevel.Unsafe.JobRanges&,System.Int32)",
      "ModuleOptionsHash": 8794384452606821980,
      "ModuleHash": "14482a1554ac03249451741ab6cb6c95",
      "LinkName": "FA11643E9B728C6D",
      "AssemblyDependencyIndices": [
        4,
        13,
        6,
        2,
        3
      ]
    },
    {
      "FullName": "System.Void Unity.Jobs.IJobParallelForDeferExtensions/JobParallelForDeferProducer`1<Unity.Physics.Broadphase/PrepareStaticBodyDataJob>::Execute(T&,System.IntPtr,System.IntPtr,Unity.Jobs.LowLevel.Unsafe.JobRanges&,System.Int32)",
      "ModuleOptionsHash": 8794384452606821980,
      "ModuleHash": "f928c94d781f329a555d1f476b797d04",
      "LinkName": "FD53D7C1821240CA",
      "AssemblyDependencyIndices": [
        0,
        13,
        2,
        3,
        4,
        6,
        1,
        8,
        5,
        11,
        10
      ]
    },
    {
      "FullName": "System.Void Unity.Jobs.IJobExtensions/JobStruct`1<Unity.Physics.BoundingVolumeHierarchy/BuildFirstNLevelsJob>::Execute(T&,System.IntPtr,System.IntPtr,Unity.Jobs.LowLevel.Unsafe.JobRanges&,System.Int32)",
      "ModuleOptionsHash": 8794384452606821980,
      "ModuleHash": "cdd7f63df9799abb3a8763724f255738",
      "LinkName": "C678A9882C2049FA",
      "AssemblyDependencyIndices": [
        4,
        13,
        6,
        2,
        3,
        8,
        5
      ]
    },
    {
      "FullName": "System.Void Unity.Jobs.IJobExtensions/JobStruct`1<Unity.Physics.BoundingVolumeHierarchy/FinalizeTreeJob>::Execute(T&,System.IntPtr,System.IntPtr,Unity.Jobs.LowLevel.Unsafe.JobRanges&,System.Int32)",
      "ModuleOptionsHash": 8794384452606821980,
      "ModuleHash": "8a4a82c5469eb9c890f1bcc88f0a7876",
      "LinkName": "028F564F43BB6E9E",
      "AssemblyDependencyIndices": [
        4,
        13,
        6,
        2,
        3,
        8
      ]
    },
    {
      "FullName": "System.Void Unity.Jobs.IJobParallelForDeferExtensions/JobParallelForDeferProducer`1<Unity.Physics.BoundingVolumeHierarchy/BuildBranchesJob>::Execute(T&,System.IntPtr,System.IntPtr,Unity.Jobs.LowLevel.Unsafe.JobRanges&,System.Int32)",
      "ModuleOptionsHash": 8794384452606821980,
      "ModuleHash": "0687f0514a3aff73d6c5f9c5075b880d",
      "LinkName": "E51229B86EAF2A2C",
      "AssemblyDependencyIndices": [
        0,
        13,
        2,
        3,
        4,
        6,
        8,
        5
      ]
    },
    {
      "FullName": "System.Void Unity.Entities.JobChunkExtensions/JobChunkProducer`1<Unity.Physics.Systems.ExportPhysicsWorld/ExportDynamicBodiesJob>::Execute(Unity.Entities.JobChunkExtensions/JobChunkWrapper`1<T>&,System.IntPtr,System.IntPtr,Unity.Jobs.LowLevel.Unsafe.JobRanges&,System.Int32)",
      "ModuleOptionsHash": 8794384452606821980,
      "ModuleHash": "44bc94b4fd6868ddc915ef104483cf27",
      "LinkName": "19BFC57C61C8DB14",
      "AssemblyDependencyIndices": [
        1,
        13,
        2,
        3,
        4,
        6,
        8,
        14,
        5
      ]
    },
    {
      "FullName": "System.Void Unity.Entities.JobChunkExtensions/JobChunkProducer`1<Unity.Transforms.CompositeScaleSystem/ToCompositeScale>::Execute(Unity.Entities.JobChunkExtensions/JobChunkWrapper`1<T>&,System.IntPtr,System.IntPtr,Unity.Jobs.LowLevel.Unsafe.JobRanges&,System.Int32)",
      "ModuleOptionsHash": 8794384452606821980,
      "ModuleHash": "196770be9256c892da3955bad86e028f",
      "LinkName": "187504A3EECC9897",
      "AssemblyDependencyIndices": [
        1,
        14,
        2,
        3,
        4,
        6,
        8,
        5
      ]
    },
    {
      "FullName": "System.Void Unity.Entities.JobChunkExtensions/JobChunkProducer`1<Unity.Transforms.TRSToLocalToWorldSystem/TRSToLocalToWorld>::Execute(Unity.Entities.JobChunkExtensions/JobChunkWrapper`1<T>&,System.IntPtr,System.IntPtr,Unity.Jobs.LowLevel.Unsafe.JobRanges&,System.Int32)",
      "ModuleOptionsHash": 8794384452606821980,
      "ModuleHash": "3f99ad56a1fd5b7ceaf1554b12a7f240",
      "LinkName": "C2CC59598D2050CD",
      "AssemblyDependencyIndices": [
        1,
        14,
        2,
        3,
        4,
        6,
        8,
        5
      ]
    },
    {
      "FullName": "System.Void Unity.Entities.JobChunkExtensions/JobChunkProducer`1<Unity.Rendering.RenderBoundsUpdateSystem/BoundsJob>::Execute(Unity.Entities.JobChunkExtensions/JobChunkWrapper`1<T>&,System.IntPtr,System.IntPtr,Unity.Jobs.LowLevel.Unsafe.JobRanges&,System.Int32)",
      "ModuleOptionsHash": 8794384452606821980,
      "ModuleHash": "e6b2715542d169491ef49b77c91bb7d0",
      "LinkName": "FF031EA991F5F00A",
      "AssemblyDependencyIndices": [
        1,
        15,
        2,
        3,
        4,
        6,
        16,
        8,
        14,
        5
      ]
    },
    {
      "FullName": "System.Void Unity.Entities.JobForEachExtensions/JobStruct_Process_ECC`3<Unity.Rendering.CopySkinnedEntityDataToRenderEntity/IterateSkinnedEntityRefJob,Unity.Rendering.SkinnedEntityReference,Unity.Rendering.BoneIndexOffsetMaterialProperty>::Execute(Unity.Entities.JobForEachExtensions/JobStruct_Process_ECC`3<T,T0,T1>&,System.IntPtr,System.IntPtr,Unity.Jobs.LowLevel.Unsafe.JobRanges&,System.Int32)",
      "ModuleOptionsHash": 8794384452606821980,
      "ModuleHash": "742455bcf380ecbeefe666c28dcb55bf",
      "LinkName": "76255B689D379364",
      "AssemblyDependencyIndices": [
        1,
        15,
        2,
        3,
        4,
        6,
        14,
        5,
        8,
        11,
        10
      ]
    },
    {
      "FullName": "System.Void Unity.Jobs.IJobParallelForExtensions/ParallelForJobStruct`1<Unity.Entities.CopyIndexedInt>::Execute(T&,System.IntPtr,System.IntPtr,Unity.Jobs.LowLevel.Unsafe.JobRanges&,System.Int32)",
      "ModuleOptionsHash": 8794384452606821980,
      "ModuleHash": "cde6f2798ef66bcd213c538414e5766e",
      "LinkName": "952DF727FF58FFF0",
      "AssemblyDependencyIndices": [
        4,
        1,
        6,
        2,
        3
      ]
    },
    {
      "FullName": "System.Void Unity.Jobs.IJobParallelForExtensions/ParallelForJobStruct`1<Unity.Rendering.GatherChunkRenderers>::Execute(T&,System.IntPtr,System.IntPtr,Unity.Jobs.LowLevel.Unsafe.JobRanges&,System.Int32)",
      "ModuleOptionsHash": 8794384452606821980,
      "ModuleHash": "fd3eb36a4bf3b1f4467932731d6fe346",
      "LinkName": "2FF0DB635BB12BB0",
      "AssemblyDependencyIndices": [
        4,
        15,
        6,
        1,
        2,
        3,
        5
      ]
    },
    {
      "FullName": "System.Void Unity.Jobs.IJobParallelForExtensions/ParallelForJobStruct`1<Unity.Entities.SegmentSortInt>::Execute(T&,System.IntPtr,System.IntPtr,Unity.Jobs.LowLevel.Unsafe.JobRanges&,System.Int32)",
      "ModuleOptionsHash": 8794384452606821980,
      "ModuleHash": "f590f13b5692b4ae429decf03a2e8393",
      "LinkName": "069809570D88ABCC",
      "AssemblyDependencyIndices": [
        4,
        1,
        6,
        2,
        3,
        5,
        8
      ]
    },
    {
      "FullName": "System.Void Unity.Jobs.IJobExtensions/JobStruct`1<Unity.Entities.SegmentSortMergeInt>::Execute(T&,System.IntPtr,System.IntPtr,Unity.Jobs.LowLevel.Unsafe.JobRanges&,System.Int32)",
      "ModuleOptionsHash": 8794384452606821980,
      "ModuleHash": "5a73125b47cdf51416e960023b86b4ed",
      "LinkName": "E844B843963C4408",
      "AssemblyDependencyIndices": [
        4,
        1,
        6,
        2,
        3,
        5,
        8,
        7,
        9,
        10
      ]
    },
    {
      "FullName": "System.Void Unity.Entities.JobChunkExtensions/JobChunkProducer`1<Unity.Physics.Systems.BuildPhysicsWorld/Jobs/CheckStaticBodyChangesJob>::Execute(Unity.Entities.JobChunkExtensions/JobChunkWrapper`1<T>&,System.IntPtr,System.IntPtr,Unity.Jobs.LowLevel.Unsafe.JobRanges&,System.Int32)",
      "ModuleOptionsHash": 8794384452606821980,
      "ModuleHash": "6e3ed3478d72e291cee6ca771f8010e2",
      "LinkName": "408B366E4E78536A",
      "AssemblyDependencyIndices": [
        1,
        13,
        2,
        3,
        4,
        6,
        14,
        8,
        5
      ]
    },
    {
      "FullName": "System.Void Unity.Jobs.IJobExtensions/JobStruct`1<Unity.Physics.Systems.BuildPhysicsWorld/Jobs/CheckStaticBodyChangesReduceJob>::Execute(T&,System.IntPtr,System.IntPtr,Unity.Jobs.LowLevel.Unsafe.JobRanges&,System.Int32)",
      "ModuleOptionsHash": 8794384452606821980,
      "ModuleHash": "9d6870b959444f9ba8eb119a871b24ef",
      "LinkName": "9FEBD8BBB76446F0",
      "AssemblyDependencyIndices": [
        4,
        13,
        6,
        2,
        3
      ]
    },
    {
      "FullName": "System.Void Unity.Rendering.JobNativeMultiHashMapVisitKeyMutableValue/JobNativeMultiHashMapVisitKeyMutableValueProducer`3<Unity.Rendering.HybridV1SelectLodEnabled,Unity.Rendering.LocalGroupKey,Unity.Rendering.BatchChunkData>::Execute(Unity.Rendering.JobNativeMultiHashMapVisitKeyMutableValue/JobNativeMultiHashMapVisitKeyMutableValueProducer`3<TJob,TKey,TValue>&,System.IntPtr,System.IntPtr,Unity.Jobs.LowLevel.Unsafe.JobRanges&,System.Int32)",
      "ModuleOptionsHash": 8794384452606821980,
      "ModuleHash": "b1c964faad135d2580119c8bdf2fe70a",
      "LinkName": "AD32600A384833D8",
      "AssemblyDependencyIndices": [
        15,
        2,
        3,
        4,
        5,
        6,
        16,
        8,
        1,
        11,
        10
      ]
    },
    {
      "FullName": "System.Void Unity.Rendering.JobNativeMultiHashMapVisitKeyValue/JobNativeMultiHashMapVisitKeyValueProducer`3<Unity.Rendering.HybridV1SimpleCullingJob,Unity.Rendering.LocalGroupKey,Unity.Rendering.BatchChunkData>::Execute(Unity.Rendering.JobNativeMultiHashMapVisitKeyValue/JobNativeMultiHashMapVisitKeyValueProducer`3<TJob,TKey,TValue>&,System.IntPtr,System.IntPtr,Unity.Jobs.LowLevel.Unsafe.JobRanges&,System.Int32)",
      "ModuleOptionsHash": 8794384452606821980,
      "ModuleHash": "3a4935892895456bb4bafa77c1763291",
      "LinkName": "3F80981DF4D063D4",
      "AssemblyDependencyIndices": [
        15,
        2,
        3,
        4,
        5,
        16,
        8,
        1,
        6
      ]
    },
    {
      "FullName": "System.Void Unity.Entities.JobChunkExtensions/JobChunkProducer`1<SnakePartMoveSystem/<>c__DisplayClass_OnUpdate_LambdaJob0>::Execute(Unity.Entities.JobChunkExtensions/JobChunkWrapper`1<T>&,System.IntPtr,System.IntPtr,Unity.Jobs.LowLevel.Unsafe.JobRanges&,System.Int32)",
      "ModuleOptionsHash": 8794384452606821980,
      "ModuleHash": "6824aa9ff2bc72ffa6e6a8eb8440dbf8",
      "LinkName": "305A5D3261512FE4",
      "AssemblyDependencyIndices": [
        1,
        17,
        2,
        3,
        4,
        6,
        8,
        5,
        11,
        10
      ]
    },
    {
      "FullName": "System.Void Unity.Entities.JobChunkExtensions/JobChunkProducer`1<SnakePartMoveSystem/<>c__DisplayClass_OnUpdate_LambdaJob1>::Execute(Unity.Entities.JobChunkExtensions/JobChunkWrapper`1<T>&,System.IntPtr,System.IntPtr,Unity.Jobs.LowLevel.Unsafe.JobRanges&,System.Int32)",
      "ModuleOptionsHash": 8794384452606821980,
      "ModuleHash": "88c4cb9899c742a4dbb005cd3717ebe7",
      "LinkName": "F9ED6A72F639E6C2",
      "AssemblyDependencyIndices": [
        1,
        17,
        2,
        3,
        4,
        6,
        8,
        14,
        5,
        11,
        10
      ]
    },
    {
      "FullName": "System.Void Unity.Entities.JobChunkExtensions/JobChunkProducer`1<SnakeScaleSystem/<>c__DisplayClass_OnUpdate_LambdaJob0>::Execute(Unity.Entities.JobChunkExtensions/JobChunkWrapper`1<T>&,System.IntPtr,System.IntPtr,Unity.Jobs.LowLevel.Unsafe.JobRanges&,System.Int32)",
      "ModuleOptionsHash": 8794384452606821980,
      "ModuleHash": "5681c8896704c21b03bea18ee9cfa03f",
      "LinkName": "EAF3247CE89D6CE7",
      "AssemblyDependencyIndices": [
        1,
        17,
        2,
        3,
        4,
        6,
        8,
        5,
        11,
        10
      ]
    },
    {
      "FullName": "System.Void Unity.Entities.JobChunkExtensions/JobChunkProducer`1<SnakeSinSystem/<>c__DisplayClass_OnUpdate_LambdaJob0>::Execute(Unity.Entities.JobChunkExtensions/JobChunkWrapper`1<T>&,System.IntPtr,System.IntPtr,Unity.Jobs.LowLevel.Unsafe.JobRanges&,System.Int32)",
      "ModuleOptionsHash": 8794384452606821980,
      "ModuleHash": "8ed9f4e18891800059c437a4a8b64536",
      "LinkName": "2D13BE4C86E80434",
      "AssemblyDependencyIndices": [
        1,
        17,
        2,
        3,
        4,
        6,
        14,
        8,
        5,
        11,
        10
      ]
    },
    {
      "FullName": "System.Void Unity.Entities.JobChunkExtensions/JobChunkProducer`1<Unity.Physics.Systems.BuildPhysicsWorld/Jobs/CreateMotions>::Execute(Unity.Entities.JobChunkExtensions/JobChunkWrapper`1<T>&,System.IntPtr,System.IntPtr,Unity.Jobs.LowLevel.Unsafe.JobRanges&,System.Int32)",
      "ModuleOptionsHash": 8794384452606821980,
      "ModuleHash": "faa3740cf6ba58caf612f181c651d9ee",
      "LinkName": "8691E78726CBFF81",
      "AssemblyDependencyIndices": [
        1,
        13,
        2,
        3,
        4,
        6,
        14,
        8,
        5
      ]
    },
    {
      "FullName": "System.Void Unity.Jobs.IJobParallelForExtensions/ParallelForJobStruct`1<Unity.Physics.Broadphase/PrepareDynamicBodyDataJob>::Execute(T&,System.IntPtr,System.IntPtr,Unity.Jobs.LowLevel.Unsafe.JobRanges&,System.Int32)",
      "ModuleOptionsHash": 8794384452606821980,
      "ModuleHash": "55905db7faacc001cf81424a8dcee182",
      "LinkName": "0388694759014418",
      "AssemblyDependencyIndices": [
        4,
        13,
        6,
        1,
        2,
        3,
        8,
        5,
        11,
        10
      ]
    },
    {
      "FullName": "System.Void Unity.Jobs.IJobExtensions/JobStruct`1<Unity.Physics.Broadphase/AllocateDynamicVsStaticNodePairs>::Execute(T&,System.IntPtr,System.IntPtr,Unity.Jobs.LowLevel.Unsafe.JobRanges&,System.Int32)",
      "ModuleOptionsHash": 8794384452606821980,
      "ModuleHash": "9a6488cc38f201c25dd763f16e19d88a",
      "LinkName": "A6CFE34AA0F4F3E3",
      "AssemblyDependencyIndices": [
        4,
        13,
        6,
        2,
        3,
        5,
        8,
        7,
        9,
        10
      ]
    },
    {
      "FullName": "System.Void Unity.Jobs.IJobExtensions/JobStruct`1<Unity.Physics.Broadphase/StaticVsDynamicBuildBranchNodePairsJob>::Execute(T&,System.IntPtr,System.IntPtr,Unity.Jobs.LowLevel.Unsafe.JobRanges&,System.Int32)",
      "ModuleOptionsHash": 8794384452606821980,
      "ModuleHash": "5e3af63110441fe096ae3376d5a36a12",
      "LinkName": "8A75A23187CC3954",
      "AssemblyDependencyIndices": [
        4,
        13,
        6,
        2,
        3,
        8
      ]
    },
    {
      "FullName": "System.Void Unity.Jobs.IJobExtensions/JobStruct`1<Unity.Physics.Broadphase/DynamicVsDynamicBuildBranchNodePairsJob>::Execute(T&,System.IntPtr,System.IntPtr,Unity.Jobs.LowLevel.Unsafe.JobRanges&,System.Int32)",
      "ModuleOptionsHash": 8794384452606821980,
      "ModuleHash": "0bb03eb536986b26381433a6e337f544",
      "LinkName": "3032B600B698016A",
      "AssemblyDependencyIndices": [
        4,
        13,
        6,
        2,
        3,
        8
      ]
    },
    {
      "FullName": "System.Void Unity.Jobs.IJobExtensions/JobStruct`1<Unity.Collections.NativeStream/ConstructJobList>::Execute(T&,System.IntPtr,System.IntPtr,Unity.Jobs.LowLevel.Unsafe.JobRanges&,System.Int32)",
      "ModuleOptionsHash": 8794384452606821980,
      "ModuleHash": "cd43a3086fd68b912046f55d7f74b385",
      "LinkName": "846F65225A066FD6",
      "AssemblyDependencyIndices": [
        4,
        5,
        6,
        2,
        3
      ]
    },
    {
      "FullName": "System.Void Unity.Jobs.IJobParallelForDeferExtensions/JobParallelForDeferProducer`1<Unity.Physics.Broadphase/DynamicVsDynamicFindOverlappingPairsJob>::Execute(T&,System.IntPtr,System.IntPtr,Unity.Jobs.LowLevel.Unsafe.JobRanges&,System.Int32)",
      "ModuleOptionsHash": 8794384452606821980,
      "ModuleHash": "4886d34061273297f954d137b17f7717",
      "LinkName": "37956FC2F190D48D",
      "AssemblyDependencyIndices": [
        0,
        13,
        2,
        3,
        4,
        6,
        8,
        5,
        11,
        10
      ]
    },
    {
      "FullName": "System.Void Unity.Jobs.IJobParallelForDeferExtensions/JobParallelForDeferProducer`1<Unity.Physics.Broadphase/StaticVsDynamicFindOverlappingPairsJob>::Execute(T&,System.IntPtr,System.IntPtr,Unity.Jobs.LowLevel.Unsafe.JobRanges&,System.Int32)",
      "ModuleOptionsHash": 8794384452606821980,
      "ModuleHash": "557af2bd8c3c845e5075193207ded722",
      "LinkName": "782453B71C44C55F",
      "AssemblyDependencyIndices": [
        0,
        13,
        2,
        3,
        4,
        6,
        8,
        5,
        11,
        10
      ]
    },
    {
      "FullName": "System.Void Unity.Jobs.IJobExtensions/JobStruct`1<Unity.Collections.NativeListUtilityTemp/DisposeListJob>::Execute(T&,System.IntPtr,System.IntPtr,Unity.Jobs.LowLevel.Unsafe.JobRanges&,System.Int32)",
      "ModuleOptionsHash": 8794384452606821980,
      "ModuleHash": "0f77b2bb647f9dfaf1e3b1b005faa09c",
      "LinkName": "B102D9D41E952106",
      "AssemblyDependencyIndices": [
        4,
        13,
        6,
        2,
        3
      ]
    },
    {
      "FullName": "System.Void Unity.Jobs.IJobExtensions/JobStruct`1<Unity.Physics.DispatchPairSequencer/CreateUnsortedDispatchPairsJob>::Execute(T&,System.IntPtr,System.IntPtr,Unity.Jobs.LowLevel.Unsafe.JobRanges&,System.Int32)",
      "ModuleOptionsHash": 8794384452606821980,
      "ModuleHash": "1357bd36f39e7c7d2cd2a9bec1d8e0df",
      "LinkName": "B6E0303A47B8B7E2",
      "AssemblyDependencyIndices": [
        4,
        13,
        6,
        2,
        3,
        5,
        8,
        1,
        11,
        10,
        7,
        9
      ]
    },
    {
      "FullName": "System.Void Unity.Jobs.IJobExtensions/JobStruct`1<Unity.Collections.LowLevel.Unsafe.UnsafeStream/DisposeJob>::Execute(T&,System.IntPtr,System.IntPtr,Unity.Jobs.LowLevel.Unsafe.JobRanges&,System.Int32)",
      "ModuleOptionsHash": 8794384452606821980,
      "ModuleHash": "a307124f9cfce50347a7e8be4200ed1a",
      "LinkName": "A8134E26EAC44A70",
      "AssemblyDependencyIndices": [
        4,
        5,
        6,
        2,
        3
      ]
    },
    {
      "FullName": "System.Void Unity.Jobs.IJobExtensions/JobStruct`1<Unity.Physics.DispatchPairSequencer/RadixSortPerBodyAJob>::Execute(T&,System.IntPtr,System.IntPtr,Unity.Jobs.LowLevel.Unsafe.JobRanges&,System.Int32)",
      "ModuleOptionsHash": 8794384452606821980,
      "ModuleHash": "e9e798bfa97b1713dbe47c2881374155",
      "LinkName": "7EA53BF49287F68C",
      "AssemblyDependencyIndices": [
        4,
        13,
        6,
        2,
        3,
        8
      ]
    },
    {
      "FullName": "System.Void Unity.Jobs.IJobParallelForExtensions/ParallelForJobStruct`1<Unity.Physics.DispatchPairSequencer/SortSubArraysJob>::Execute(T&,System.IntPtr,System.IntPtr,Unity.Jobs.LowLevel.Unsafe.JobRanges&,System.Int32)",
      "ModuleOptionsHash": 8794384452606821980,
      "ModuleHash": "8358f36f6992a11fb5a26e17c2b01796",
      "LinkName": "4DD3D23C07CA9349",
      "AssemblyDependencyIndices": [
        4,
        13,
        6,
        2,
        3,
        5,
        8
      ]
    },
    {
      "FullName": "System.Void Unity.Jobs.IJobExtensions/JobStruct`1<Unity.Physics.DispatchPairSequencer/CreateDispatchPairPhasesJob>::Execute(T&,System.IntPtr,System.IntPtr,Unity.Jobs.LowLevel.Unsafe.JobRanges&,System.Int32)",
      "ModuleOptionsHash": 8794384452606821980,
      "ModuleHash": "e1c29da0b748bd8c04c90f9b68f2a759",
      "LinkName": "D0F7D22843F475B9",
      "AssemblyDependencyIndices": [
        4,
        13,
        6,
        2,
        3,
        8
      ]
    },
    {
      "FullName": "System.Void Unity.Jobs.IJobParallelForExtensions/ParallelForJobStruct`1<Unity.Physics.Solver/ParallelApplyGravityAndCopyInputVelocitiesJob>::Execute(T&,System.IntPtr,System.IntPtr,Unity.Jobs.LowLevel.Unsafe.JobRanges&,System.Int32)",
      "ModuleOptionsHash": 8794384452606821980,
      "ModuleHash": "507f42960e1fa9dbd0e00f9959e8e940",
      "LinkName": "F856708D6D984B9A",
      "AssemblyDependencyIndices": [
        4,
        13,
        6,
        8,
        2,
        3
      ]
    },
    {
      "FullName": "System.Void Unity.Jobs.IJobExtensions/JobStruct`1<Unity.Collections.NativeStream/ConstructJob>::Execute(T&,System.IntPtr,System.IntPtr,Unity.Jobs.LowLevel.Unsafe.JobRanges&,System.Int32)",
      "ModuleOptionsHash": 8794384452606821980,
      "ModuleHash": "6c71c1e47b2b270d77bbafcbae959d15",
      "LinkName": "1F3827F16D435181",
      "AssemblyDependencyIndices": [
        4,
        5,
        6,
        2,
        3
      ]
    },
    {
      "FullName": "System.Void Unity.Jobs.IJobParallelForDeferExtensions/JobParallelForDeferProducer`1<Unity.Physics.NarrowPhase/ParallelCreateContactsJob>::Execute(T&,System.IntPtr,System.IntPtr,Unity.Jobs.LowLevel.Unsafe.JobRanges&,System.Int32)",
      "ModuleOptionsHash": 8794384452606821980,
      "ModuleHash": "81b80019c0f3724b3549a04486b518e6",
      "LinkName": "5A9929CFA60FE709",
      "AssemblyDependencyIndices": [
        0,
        13,
        2,
        3,
        4,
        6,
        1,
        8,
        5,
        11,
        10
      ]
    },
    {
      "FullName": "System.Void Unity.Jobs.IJobParallelForDeferExtensions/JobParallelForDeferProducer`1<Unity.Physics.Solver/ParallelBuildJacobiansJob>::Execute(T&,System.IntPtr,System.IntPtr,Unity.Jobs.LowLevel.Unsafe.JobRanges&,System.Int32)",
      "ModuleOptionsHash": 8794384452606821980,
      "ModuleHash": "af3efb71f6467ee513d83ce2bdc37eb2",
      "LinkName": "68E9B1320F1D6494",
      "AssemblyDependencyIndices": [
        0,
        13,
        2,
        3,
        4,
        6,
        1,
        8,
        5,
        11,
        10
      ]
    },
    {
      "FullName": "System.Void Unity.Jobs.IJobExtensions/JobStruct`1<Unity.Collections.NativeListDisposeJob>::Execute(T&,System.IntPtr,System.IntPtr,Unity.Jobs.LowLevel.Unsafe.JobRanges&,System.Int32)",
      "ModuleOptionsHash": 8794384452606821980,
      "ModuleHash": "7854b46f284e7b6b6abdbc3fc4785e15",
      "LinkName": "352B6D5D03F8F621",
      "AssemblyDependencyIndices": [
        4,
        5,
        6,
        2,
        3,
        8,
        7,
        9,
        10
      ]
    },
    {
      "FullName": "System.Void Unity.Jobs.IJobParallelForDeferExtensions/JobParallelForDeferProducer`1<Unity.Physics.Solver/ParallelSolverJob>::Execute(T&,System.IntPtr,System.IntPtr,Unity.Jobs.LowLevel.Unsafe.JobRanges&,System.Int32)",
      "ModuleOptionsHash": 8794384452606821980,
      "ModuleHash": "10181aef056e86313e77bce37f289991",
      "LinkName": "D0917ED77D0C7156",
      "AssemblyDependencyIndices": [
        0,
        13,
        2,
        3,
        4,
        6,
        8,
        5,
        1,
        11,
        10
      ]
    },
    {
      "FullName": "System.Void Unity.Jobs.IJobExtensions/JobStruct`1<Unity.Physics.DispatchPairSequencer/SolverSchedulerInfo/DisposeJob>::Execute(T&,System.IntPtr,System.IntPtr,Unity.Jobs.LowLevel.Unsafe.JobRanges&,System.Int32)",
      "ModuleOptionsHash": 8794384452606821980,
      "ModuleHash": "793b8a1bf2f2489661404ce878f5a959",
      "LinkName": "8DAD00E53B49838A",
      "AssemblyDependencyIndices": [
        4,
        13,
        6,
        2,
        3
      ]
    },
    {
      "FullName": "System.Void Unity.Jobs.IJobParallelForExtensions/ParallelForJobStruct`1<Unity.Physics.Integrator/ParallelIntegrateMotionsJob>::Execute(T&,System.IntPtr,System.IntPtr,Unity.Jobs.LowLevel.Unsafe.JobRanges&,System.Int32)",
      "ModuleOptionsHash": 8794384452606821980,
      "ModuleHash": "6792e86e7fe8a2de3386d01238b13ec1",
      "LinkName": "D1663803CA0E7F8C",
      "AssemblyDependencyIndices": [
        4,
        13,
        6,
        8,
        2,
        3
      ]
    },
    {
      "FullName": "System.Void Unity.Entities.JobChunkExtensions/JobChunkProducer`1<Unity.Transforms.ParentSystem/GatherChangedParents>::Execute(Unity.Entities.JobChunkExtensions/JobChunkWrapper`1<T>&,System.IntPtr,System.IntPtr,Unity.Jobs.LowLevel.Unsafe.JobRanges&,System.Int32)",
      "ModuleOptionsHash": 8794384452606821980,
      "ModuleHash": "50b562cdca4dc9cbcf7d9ed991d7f23b",
      "LinkName": "9962135A5FD61CE0",
      "AssemblyDependencyIndices": [
        1,
        14,
        2,
        3,
        4,
        6,
        5,
        8
      ]
    },
    {
      "FullName": "System.Void Unity.Jobs.IJobExtensions/JobStruct`1<Unity.Transforms.ParentSystem/FindMissingChild>::Execute(T&,System.IntPtr,System.IntPtr,Unity.Jobs.LowLevel.Unsafe.JobRanges&,System.Int32)",
      "ModuleOptionsHash": 8794384452606821980,
      "ModuleHash": "bc7784c0c145797e4156b0a157814117",
      "LinkName": "3ECA3D7CCCF185EC",
      "AssemblyDependencyIndices": [
        4,
        14,
        6,
        2,
        3,
        5,
        1,
        8,
        7,
        9,
        10
      ]
    },
    {
      "FullName": "System.Void Unity.Jobs.IJobParallelForExtensions/ParallelForJobStruct`1<Unity.Entities.EntityComponentStore/GatherEntityInChunkForEntities>::Execute(T&,System.IntPtr,System.IntPtr,Unity.Jobs.LowLevel.Unsafe.JobRanges&,System.Int32)",
      "ModuleOptionsHash": 8794384452606821980,
      "ModuleHash": "721a55dca944f8607ac8ebebb9904213",
      "LinkName": "6E82D0069F7CA025",
      "AssemblyDependencyIndices": [
        4,
        1,
        6,
        2,
        3
      ]
    },
    {
      "FullName": "System.Void Unity.Jobs.IJobExtensions/JobStruct`1<Unity.Entities.EntityComponentStore/EntityBatchFromEntityChunkDataShared>::Execute(T&,System.IntPtr,System.IntPtr,Unity.Jobs.LowLevel.Unsafe.JobRanges&,System.Int32)",
      "ModuleOptionsHash": 8794384452606821980,
      "ModuleHash": "68b6730c3de42fd5fe086f6c0c2911d1",
      "LinkName": "DE6A61F1471B0E30",
      "AssemblyDependencyIndices": [
        4,
        1,
        6,
        2,
        3,
        5,
        8,
        7,
        9,
        10
      ]
    },
    {
      "FullName": "System.Void Unity.Jobs.IJobExtensions/JobStruct`1<Unity.Transforms.ParentSystem/FixupChangedChildren>::Execute(T&,System.IntPtr,System.IntPtr,Unity.Jobs.LowLevel.Unsafe.JobRanges&,System.Int32)",
      "ModuleOptionsHash": 8794384452606821980,
      "ModuleHash": "7dc3226346917c4e315faf2e072b9cbd",
      "LinkName": "ACE3633765E8E12C",
      "AssemblyDependencyIndices": [
        4,
        14,
        6,
        2,
        3,
        5,
        1,
        8
      ]
    },
    {
      "FullName": "System.Void Unity.Entities.JobChunkExtensions/JobChunkProducer`1<Unity.Transforms.ParentScaleInverseSystem/ToChildParentScaleInverse>::Execute(Unity.Entities.JobChunkExtensions/JobChunkWrapper`1<T>&,System.IntPtr,System.IntPtr,Unity.Jobs.LowLevel.Unsafe.JobRanges&,System.Int32)",
      "ModuleOptionsHash": 8794384452606821980,
      "ModuleHash": "18b50dacad44ab2ce15518a1673224d4",
      "LinkName": "98C76BDD51876252",
      "AssemblyDependencyIndices": [
        1,
        14,
        2,
        3,
        4,
        6,
        8,
        5
      ]
    },
    {
      "FullName": "System.Void Unity.Entities.JobChunkExtensions/JobChunkProducer`1<Unity.Transforms.TRSToLocalToParentSystem/TRSToLocalToParent>::Execute(Unity.Entities.JobChunkExtensions/JobChunkWrapper`1<T>&,System.IntPtr,System.IntPtr,Unity.Jobs.LowLevel.Unsafe.JobRanges&,System.Int32)",
      "ModuleOptionsHash": 8794384452606821980,
      "ModuleHash": "081c77879fdbabb20e033a3f3ecd9559",
      "LinkName": "6CF2DDB88431D10A",
      "AssemblyDependencyIndices": [
        1,
        14,
        2,
        3,
        4,
        6,
        8,
        5
      ]
    },
    {
      "FullName": "System.Void Unity.Entities.JobChunkExtensions/JobChunkProducer`1<Unity.Transforms.LocalToParentSystem/UpdateHierarchy>::Execute(Unity.Entities.JobChunkExtensions/JobChunkWrapper`1<T>&,System.IntPtr,System.IntPtr,Unity.Jobs.LowLevel.Unsafe.JobRanges&,System.Int32)",
      "ModuleOptionsHash": 8794384452606821980,
      "ModuleHash": "894d0bf467ad76b73fd4caf08f8977e4",
      "LinkName": "56A28CFD5FC1DDE3",
      "AssemblyDependencyIndices": [
        1,
        14,
        2,
        3,
        4,
        6,
        8,
        5
      ]
    },
    {
      "FullName": "System.Void Unity.Entities.JobChunkExtensions/JobChunkProducer`1<FoodAbsorbingSystem/<>c__DisplayClass_OnUpdate_LambdaJob0>::Execute(Unity.Entities.JobChunkExtensions/JobChunkWrapper`1<T>&,System.IntPtr,System.IntPtr,Unity.Jobs.LowLevel.Unsafe.JobRanges&,System.Int32)",
      "ModuleOptionsHash": 8794384452606821980,
      "ModuleHash": "fc34773aed61efa1bfef57fa07e69b04",
      "LinkName": "6C32522FA10CA03E",
      "AssemblyDependencyIndices": [
        1,
        17,
        2,
        3,
        4,
        6,
        14,
        8,
        5,
        11,
        10
      ]
    },
    {
      "FullName": "System.Void Unity.Jobs.IJobExtensions/JobStruct`1<Unity.Transforms.ParentSystem/GatherChildEntities>::Execute(T&,System.IntPtr,System.IntPtr,Unity.Jobs.LowLevel.Unsafe.JobRanges&,System.Int32)",
      "ModuleOptionsHash": 8794384452606821980,
      "ModuleHash": "5d89dcd3272c879a7ecdd4d5d576607b",
      "LinkName": "4DBBB04EA08E446F",
      "AssemblyDependencyIndices": [
        4,
        14,
        6,
        2,
        3,
        1,
        5,
        8,
        7,
        9,
        10
      ]
    }
  ]
}